9.142061597908852644e-01
9.153653824298215724e-01
9.106347312194567056e-01
8.987100806909875672e-01
8.855807478122513787e-01
9.034435731333105846e-01
8.796681441072849994e-01
8.926923514035686180e-01
8.902829867030344069e-01
8.927633822025230481e-01
8.986390498920331371e-01
8.915331287646323100e-01
8.568672576429139376e-01
8.975252869644277931e-01
8.807279236276849277e-01
8.867342879872712746e-01
9.070263666325717455e-01
8.915047164450504713e-01
8.915388112285487221e-01
8.938913512899193670e-01
8.974713035572222664e-01
8.950789862484374027e-01
9.022673031026252621e-01
8.843277645186953251e-01
8.998863507216730007e-01
8.856375724514149450e-01
9.189282873053756795e-01
9.057989544266393800e-01
9.022616206387088500e-01
8.820007955449482573e-01
8.938771451301283921e-01
9.106318899874985551e-01
8.819951130810319562e-01
9.082480963745880320e-01
8.891266052960563604e-01
8.926639390839867794e-01
8.879190817138311598e-01
8.998863507216728896e-01
9.165558586202977587e-01
9.070150017047391433e-01
8.904080009091943637e-01
9.142146834867598271e-01
8.903369701102398226e-01
9.082338902147971682e-01
8.927434935788157722e-01
9.057961131946812294e-01
9.117655415388111750e-01
9.057875894988066667e-01
9.058813501534265233e-01
8.879588589612454896e-01
9.118422548016820173e-01
9.023070803500399251e-01
8.879531764973291885e-01
8.712240027275826026e-01
8.795857483804977450e-01
9.058216842823046955e-01
9.058216842823046955e-01
9.129702238890784471e-01
8.760143198090691863e-01
9.010881918399817891e-01
9.034606205250595989e-01
8.879105580179565971e-01
9.046681441072847996e-01
9.070462552562790215e-01
8.736958745311966812e-01
8.820746675758609490e-01
8.986617797476987857e-01
9.058557790658028352e-01
9.034208432776451581e-01
8.939254460734173957e-01
8.915586998522559981e-01
9.057847482668485162e-01
9.130298897602000530e-01
9.153795885896123252e-01
8.832282077508808449e-01
9.022616206387088500e-01
9.142203659506761282e-01
8.927605409705648976e-01
8.998806682577564775e-01
9.022587794067506994e-01
8.938885100579609944e-01
8.890981929764746328e-01
8.950534151608137146e-01
8.986731446755311659e-01
8.998522559381748609e-01
9.058813501534265233e-01
9.010967155358563518e-01
8.892146834867599159e-01
9.165700647800885115e-01
9.081997954312990284e-01
8.950931924082282665e-01
9.022871917263325381e-01
9.142090010228435260e-01
8.831742243436754292e-01
8.783583361745651574e-01
9.106318899874985551e-01
8.975196045005113810e-01
8.868450960336401456e-01
8.892487782702579446e-01
8.986589385157405241e-01
